…
#> Warning in predict.lm(structure(list(coefficients = c(`(Intercept)` =
#> 1464.99999999999, : prediction from a rank-deficient fit may be misleading
#> Warning in predict.lm(object, newdata, se.fit, scale = 1, type = ifelse(type
#> == : prediction from a rank-deficient fit may be misleading
#> Warning in predict.lm(structure(list(coefficients = c(`(Intercept)` =
#> 1464.99999999999, : prediction from a rank-deficient fit may be misleading
#> Warning in predict.lm(object, newdata, se.fit, scale = 1, type = ifelse(type
#> == : prediction from a rank-deficient fit may be misleading
#> Warning in predict.lm(structure(list(coefficients = c(`(Intercept)` =
#> 1464.99999999999, : prediction from a rank-deficient fit may be misleading
#> Warning in predict.lm(object, newdata, se.fit, scale = 1, type = ifelse(type
#> == : prediction from a rank-deficient fit may be misleading
#> Warning in predict.lm(structure(list(coefficients = c(`(Intercept)` =
#> 1464.99999999999, : prediction from a rank-deficient fit may be misleading
#> # A tibble: 33 x 11
#>       id sex   race      t metastate   sbp   dbp   age diabetes glucose chd_risk
#>    <int> <chr> <chr> <int> <chr>     <dbl> <dbl> <dbl> <lgl>      <dbl> <ord>   
#>  1     1 male  black     5 state3     134.  95.9    52 TRUE       -391. elevated
#>  2     1 male  black     6 state3     137.  90.2    53 FALSE       523. elevated
#>  3     1 male  black     7 state3     139.  95.1    54 TRUE       -307. elevated
#>  4     1 male  black     8 state3     140.  96.8    55 FALSE       381. elevated
#>  5     1 male  black     9 state3     142.  99.0    56 FALSE       343. elevated
#>  6     1 male  black    10 state3     143. 101.     57 FALSE       303. elevated
#>  7     2 fema… white     5 state3     145. 107.     67 FALSE       264. elevated
#>  8     2 fema… white     6 state3     146.  98.8    68 FALSE       512. elevated
#>  9     2 fema… white     7 state3     149. 103.     69 FALSE       411. elevated
#> 10     2 fema… white     8 state3     150. 105.     70 FALSE       376. elevated
#> # … with 23 more rows
…
#> Warning in predict.lm(structure(list(coefficients = c(`(Intercept)` =
#> 1464.99999999999, : prediction from a rank-deficient fit may be misleading
#> Warning in predict.lm(object, newdata, se.fit, scale = 1, type = ifelse(type
#> == : prediction from a rank-deficient fit may be misleading
#> Warning in predict.lm(structure(list(coefficients = c(`(Intercept)` =
#> 1464.99999999999, : prediction from a rank-deficient fit may be misleading
#> Warning in predict.lm(object, newdata, se.fit, scale = 1, type = ifelse(type
#> == : prediction from a rank-deficient fit may be misleading
#> Warning in predict.lm(structure(list(coefficients = c(`(Intercept)` =
#> 1464.99999999999, : prediction from a rank-deficient fit may be misleading
#> # A tibble: 33 x 12
#>       id sex   race      t     h metastate   sbp   dbp   age diabetes glucose
#>    <int> <chr> <chr> <int> <int> <chr>     <dbl> <dbl> <dbl> <lgl>      <dbl>
#>  1     1 male  black     4     1 state3     134.  95.9    52 TRUE       -391.
#>  2     1 male  black     4     2 state3     137.  90.2    53 FALSE       523.
#>  3     1 male  black     4     3 state3     139.  95.1    54 TRUE       -307.
#>  4     1 male  black     3     1 state2     136.  85.3    51 TRUE         NA 
#>  5     1 male  black     3     2 state3     136.  92.2    52 TRUE       -270.
#>  6     1 male  black     3     3 state3     137.  92.1    53 FALSE       470.
#>  7     2 fema… white     4     1 state3     145. 107.     67 FALSE       264.
#>  8     2 fema… white     4     2 state3     146.  98.8    68 FALSE       512.
#>  9     2 fema… white     4     3 state3     149. 103.     69 FALSE       411.
#> 10     2 fema… white     3     1 state3     146.  98.3    67 TRUE       -199.
#> # … with 23 more rows, and 1 more variable: chd_risk <ord>
…
